<?xml version="1.0" encoding="UTF-8" standalone="no"?>
<!-- Created with Inkscape (http://www.inkscape.org/) -->

<svg
   width="495.59256mm"
   height="194.3667mm"
   viewBox="0 0 495.59257 194.3667"
   version="1.1"
   id="svg5"
   inkscape:version="1.1.1 (3bf5ae0d25, 2021-09-20)"
   sodipodi:docname="algo.svg"
   xmlns:inkscape="http://www.inkscape.org/namespaces/inkscape"
   xmlns:sodipodi="http://sodipodi.sourceforge.net/DTD/sodipodi-0.dtd"
   xmlns="http://www.w3.org/2000/svg"
   xmlns:svg="http://www.w3.org/2000/svg">
  <sodipodi:namedview
     id="namedview7"
     pagecolor="#ffffff"
     bordercolor="#666666"
     borderopacity="1.0"
     inkscape:pageshadow="2"
     inkscape:pageopacity="0.0"
     inkscape:pagecheckerboard="0"
     inkscape:document-units="mm"
     showgrid="false"
     inkscape:zoom="0.4692965"
     inkscape:cx="783.08703"
     inkscape:cy="149.15943"
     inkscape:window-width="1920"
     inkscape:window-height="1011"
     inkscape:window-x="0"
     inkscape:window-y="32"
     inkscape:window-maximized="1"
     inkscape:current-layer="layer1"
     inkscape:snap-global="false" />
  <defs
     id="defs2" />
  <g
     inkscape:label="Calque 1"
     inkscape:groupmode="layer"
     id="layer1"
     transform="translate(-23.938517,-51.436041)">
    <g
       id="g1191">
      <rect
         style="fill:#ffffff;fill-opacity:1;stroke:#5e81ac;stroke-width:2;stroke-linecap:round;stroke-linejoin:round"
         id="rect846"
         width="37.898228"
         height="23.856966"
         x="80.417931"
         y="52.436043" />
      <text
         xml:space="preserve"
         style="font-style:normal;font-variant:normal;font-weight:bold;font-stretch:normal;font-size:12.7px;line-height:1.25;font-family:Cantarell;-inkscape-font-specification:'Cantarell, Bold';font-variant-ligatures:normal;font-variant-caps:normal;font-variant-numeric:normal;font-variant-east-asian:normal;letter-spacing:0px;word-spacing:0px;fill:#2e3440;stroke-width:0.406434"
         x="84.806511"
         y="68.771423"
         id="text8254"><tspan
           sodipodi:role="line"
           id="tspan8252"
           style="font-style:normal;font-variant:normal;font-weight:bold;font-stretch:normal;font-size:12.7px;font-family:Cantarell;-inkscape-font-specification:'Cantarell, Bold';font-variant-ligatures:normal;font-variant-caps:normal;font-variant-numeric:normal;font-variant-east-asian:normal;fill:#2e3440;stroke-width:0.406434"
           x="84.806511"
           y="68.771423">Start</tspan></text>
      <path
         style="fill:#2e3440;fill-rule:evenodd;stroke:#41463b;stroke-width:2;stroke-linecap:butt;stroke-linejoin:miter;stroke-miterlimit:4;stroke-dasharray:none;stroke-opacity:1"
         d="m 99.367044,118.07208 -1e-6,17.59762"
         id="path42413"
         inkscape:connector-type="polyline"
         inkscape:connector-curvature="0"
         inkscape:connection-start="#rect846-1"
         inkscape:connection-end="#rect20185" />
      <rect
         style="fill:#ffffff;fill-opacity:1;stroke:#5e81ac;stroke-width:2;stroke-linecap:round;stroke-linejoin:round"
         id="rect846-1"
         width="37.898228"
         height="23.856966"
         x="80.417931"
         y="94.215118" />
      <path
         style="fill:#2e3440;fill-rule:evenodd;stroke:#41463b;stroke-width:2;stroke-linecap:butt;stroke-linejoin:miter;stroke-miterlimit:4;stroke-dasharray:none;stroke-opacity:1"
         d="m 109.96447,156.73291 29.30169,22.43378"
         id="path42415"
         inkscape:connector-type="polyline"
         inkscape:connector-curvature="0"
         inkscape:connection-start="#rect20185"
         inkscape:connection-end="#rect846-1-6" />
      <path
         style="fill:#2e3440;fill-rule:evenodd;stroke:#41463b;stroke-width:2;stroke-linecap:butt;stroke-linejoin:miter;stroke-miterlimit:4;stroke-dasharray:none;stroke-opacity:1"
         d="m 139.00635,203.02365 -23.7992,17.92212"
         id="path42419"
         inkscape:connector-type="polyline"
         inkscape:connector-curvature="0"
         inkscape:connection-start="#rect846-1-6"
         inkscape:connection-end="#rect846-6" />
      <rect
         style="fill:#ffffff;fill-opacity:1;stroke:#5e81ac;stroke-width:2;stroke-linecap:round;stroke-linejoin:round"
         id="rect846-1-6"
         width="37.898228"
         height="23.856966"
         x="135.89734"
         y="179.16669" />
      <path
         style="fill:#2e3440;fill-rule:evenodd;stroke:#41463b;stroke-width:2;stroke-linecap:butt;stroke-linejoin:miter;stroke-miterlimit:4;stroke-dasharray:none;stroke-opacity:1"
         d="M 88.769616,156.73291 59.467924,179.16669"
         id="path42417"
         inkscape:connector-type="polyline"
         inkscape:connector-curvature="0"
         inkscape:connection-start="#rect20185"
         inkscape:connection-end="#rect846-1-6-8" />
      <path
         style="fill:#2e3440;fill-rule:evenodd;stroke:#41463b;stroke-width:2;stroke-linecap:butt;stroke-linejoin:miter;stroke-miterlimit:4;stroke-dasharray:none;stroke-opacity:1"
         d="m 59.72774,203.02365 23.799195,17.92212"
         id="path42421"
         inkscape:connector-type="polyline"
         inkscape:connector-curvature="0"
         inkscape:connection-start="#rect846-1-6-8"
         inkscape:connection-end="#rect846-6" />
      <rect
         style="fill:#ffffff;fill-opacity:1;stroke:#5e81ac;stroke-width:2;stroke-linecap:round;stroke-linejoin:round"
         id="rect846-1-6-8"
         width="37.898228"
         height="23.856966"
         x="24.938517"
         y="179.16669" />
      <rect
         style="fill:#ffffff;fill-opacity:1;stroke:#5e81ac;stroke-width:2;stroke-linecap:round;stroke-linejoin:round"
         id="rect846-6"
         width="37.898228"
         height="23.856966"
         x="80.417931"
         y="220.94577" />
      <text
         xml:space="preserve"
         style="font-style:normal;font-variant:normal;font-weight:bold;font-stretch:normal;font-size:12.7px;line-height:1.25;font-family:Cantarell;-inkscape-font-specification:'Cantarell, Bold';font-variant-ligatures:normal;font-variant-caps:normal;font-variant-numeric:normal;font-variant-east-asian:normal;letter-spacing:0px;word-spacing:0px;fill:#2e3440;stroke-width:0.406434"
         x="88.083107"
         y="237.5034"
         id="text8254-9"><tspan
           sodipodi:role="line"
           id="tspan8252-4"
           style="font-style:normal;font-variant:normal;font-weight:bold;font-stretch:normal;font-size:12.7px;font-family:Cantarell;-inkscape-font-specification:'Cantarell, Bold';font-variant-ligatures:normal;font-variant-caps:normal;font-variant-numeric:normal;font-variant-east-asian:normal;fill:#2e3440;stroke-width:0.406434"
           x="88.083107"
           y="237.5034">End</tspan></text>
      <rect
         style="fill:#ffffff;fill-opacity:1;stroke:#5e81ac;stroke-width:2.30115;stroke-linecap:round;stroke-linejoin:round;stroke-miterlimit:4;stroke-dasharray:none"
         id="rect20185"
         width="31.191711"
         height="31.191711"
         x="108.7803"
         y="-249.19699"
         transform="matrix(-0.90974646,0.41516428,-0.90974646,-0.41516428,0,0)" />
      <text
         xml:space="preserve"
         style="font-style:normal;font-variant:normal;font-weight:normal;font-stretch:normal;font-size:8.46667px;line-height:1.25;font-family:Cantarell;-inkscape-font-specification:'Cantarell, Normal';font-variant-ligatures:normal;font-variant-caps:normal;font-variant-numeric:normal;font-variant-east-asian:normal;letter-spacing:0px;word-spacing:0px;stroke-width:0.264583"
         x="85.985489"
         y="109.22971"
         id="text22910"><tspan
           sodipodi:role="line"
           id="tspan22908"
           style="font-style:normal;font-variant:normal;font-weight:normal;font-stretch:normal;font-size:8.46667px;font-family:Cantarell;-inkscape-font-specification:'Cantarell, Normal';font-variant-ligatures:normal;font-variant-caps:normal;font-variant-numeric:normal;font-variant-east-asian:normal;stroke-width:0.264583"
           x="85.985489"
           y="109.22971">Read A</tspan></text>
      <text
         xml:space="preserve"
         style="font-style:normal;font-variant:normal;font-weight:normal;font-stretch:normal;font-size:8.46667px;line-height:1.25;font-family:Cantarell;-inkscape-font-specification:'Cantarell, Normal';font-variant-ligatures:normal;font-variant-caps:normal;font-variant-numeric:normal;font-variant-east-asian:normal;letter-spacing:0px;word-spacing:0px;fill:#2e3440;stroke-width:0.264583"
         x="33.892735"
         y="194.03311"
         id="text22910-9"><tspan
           sodipodi:role="line"
           id="tspan22908-0"
           style="font-style:normal;font-variant:normal;font-weight:normal;font-stretch:normal;font-size:8.46667px;font-family:Cantarell;-inkscape-font-specification:'Cantarell, Normal';font-variant-ligatures:normal;font-variant-caps:normal;font-variant-numeric:normal;font-variant-east-asian:normal;fill:#2e3440;stroke-width:0.264583"
           x="33.892735"
           y="194.03311">B = A</tspan></text>
      <text
         xml:space="preserve"
         style="font-style:normal;font-variant:normal;font-weight:normal;font-stretch:normal;font-size:8.46667px;line-height:1.25;font-family:Cantarell;-inkscape-font-specification:'Cantarell, Normal';font-variant-ligatures:normal;font-variant-caps:normal;font-variant-numeric:normal;font-variant-east-asian:normal;letter-spacing:0px;word-spacing:0px;fill:#2e3440;stroke-width:0.264583"
         x="143.6239"
         y="194.05428"
         id="text22910-3"><tspan
           sodipodi:role="line"
           id="tspan22908-3"
           style="font-style:normal;font-variant:normal;font-weight:normal;font-stretch:normal;font-size:8.46667px;font-family:Cantarell;-inkscape-font-specification:'Cantarell, Normal';font-variant-ligatures:normal;font-variant-caps:normal;font-variant-numeric:normal;font-variant-east-asian:normal;fill:#2e3440;stroke-width:0.264583"
           x="143.6239"
           y="194.05428">B = 12</tspan></text>
      <text
         xml:space="preserve"
         style="font-style:normal;font-variant:normal;font-weight:normal;font-stretch:normal;font-size:8.46667px;line-height:1.25;font-family:Cantarell;-inkscape-font-specification:'Cantarell, Normal';font-variant-ligatures:normal;font-variant-caps:normal;font-variant-numeric:normal;font-variant-east-asian:normal;letter-spacing:0px;word-spacing:0px;stroke-width:0.264583"
         x="86.425766"
         y="151.79015"
         id="text22910-8"><tspan
           sodipodi:role="line"
           id="tspan22908-9"
           style="font-style:normal;font-variant:normal;font-weight:normal;font-stretch:normal;font-size:8.46667px;font-family:Cantarell;-inkscape-font-specification:'Cantarell, Normal';font-variant-ligatures:normal;font-variant-caps:normal;font-variant-numeric:normal;font-variant-east-asian:normal;stroke-width:0.264583"
           x="86.425766"
           y="151.79015">If A &gt; 7</tspan></text>
      <path
         style="fill:#2e3440;fill-rule:evenodd;stroke:#41463b;stroke-width:2;stroke-linecap:butt;stroke-linejoin:miter;stroke-miterlimit:4;stroke-dasharray:none;stroke-opacity:1"
         d="M 99.367044,76.293009 V 94.215118"
         id="path42149"
         inkscape:connector-type="polyline"
         inkscape:connector-curvature="0"
         inkscape:connection-start="#rect846"
         inkscape:connection-end="#rect846-1" />
    </g>
    <g
       id="g1165"
       transform="translate(-1.0170817e-5,0.23645782)">
      <rect
         style="fill:#ffffff;fill-opacity:1;stroke:#5e81ac;stroke-width:2;stroke-linecap:round;stroke-linejoin:round"
         id="rect846-64"
         width="37.898228"
         height="23.856966"
         x="425.15347"
         y="52.199593" />
      <text
         xml:space="preserve"
         style="font-style:normal;font-variant:normal;font-weight:bold;font-stretch:normal;font-size:12.7px;line-height:1.25;font-family:Cantarell;-inkscape-font-specification:'Cantarell, Bold';font-variant-ligatures:normal;font-variant-caps:normal;font-variant-numeric:normal;font-variant-east-asian:normal;letter-spacing:0px;word-spacing:0px;fill:#2e3440;stroke-width:0.406434"
         x="429.54205"
         y="68.534966"
         id="text8254-3"><tspan
           sodipodi:role="line"
           id="tspan8252-0"
           style="font-style:normal;font-variant:normal;font-weight:bold;font-stretch:normal;font-size:12.7px;font-family:Cantarell;-inkscape-font-specification:'Cantarell, Bold';font-variant-ligatures:normal;font-variant-caps:normal;font-variant-numeric:normal;font-variant-east-asian:normal;fill:#2e3440;stroke-width:0.406434"
           x="429.54205"
           y="68.534966">Start</tspan></text>
      <path
         style="fill:#2e3440;fill-rule:evenodd;stroke:#41463b;stroke-width:2;stroke-linecap:butt;stroke-linejoin:miter;stroke-miterlimit:4;stroke-dasharray:none;stroke-opacity:1"
         d="m 444.10258,117.83563 0,17.59761"
         id="path42413-3"
         inkscape:connector-type="polyline"
         inkscape:connector-curvature="0"
         inkscape:connection-start="#rect846-1-0"
         inkscape:connection-end="#rect20185-2" />
      <rect
         style="fill:#ffffff;fill-opacity:1;stroke:#5e81ac;stroke-width:2;stroke-linecap:round;stroke-linejoin:round"
         id="rect846-1-0"
         width="37.898228"
         height="23.856966"
         x="425.15347"
         y="93.978661" />
      <path
         style="fill:#2e3440;fill-rule:evenodd;stroke:#41463b;stroke-width:2;stroke-linecap:butt;stroke-linejoin:miter;stroke-miterlimit:4;stroke-dasharray:none;stroke-opacity:1"
         d="m 454.7,156.49645 29.30169,22.43377"
         id="path42415-9"
         inkscape:connector-type="polyline"
         inkscape:connector-curvature="0"
         inkscape:connection-start="#rect20185-2"
         inkscape:connection-end="#rect846-1-6-5" />
      <path
         style="fill:#2e3440;fill-rule:evenodd;stroke:#41463b;stroke-width:2;stroke-linecap:butt;stroke-linejoin:miter;stroke-miterlimit:4;stroke-dasharray:none;stroke-opacity:1"
         d="M 483.74188,202.78719 459.94269,220.7093"
         id="path42419-2"
         inkscape:connector-type="polyline"
         inkscape:connector-curvature="0"
         inkscape:connection-start="#rect846-1-6-5"
         inkscape:connection-end="#rect846-6-9" />
      <rect
         style="fill:#ffffff;fill-opacity:1;stroke:#5e81ac;stroke-width:2;stroke-linecap:round;stroke-linejoin:round"
         id="rect846-1-6-5"
         width="37.898228"
         height="23.856966"
         x="480.63287"
         y="178.93022" />
      <path
         style="fill:#2e3440;fill-rule:evenodd;stroke:#41463b;stroke-width:2;stroke-linecap:butt;stroke-linejoin:miter;stroke-miterlimit:4;stroke-dasharray:none;stroke-opacity:1"
         d="m 433.50514,156.49645 -29.30169,22.43377"
         id="path42417-4"
         inkscape:connector-type="polyline"
         inkscape:connector-curvature="0"
         inkscape:connection-start="#rect20185-2"
         inkscape:connection-end="#rect846-1-6-8-5" />
      <path
         style="fill:#2e3440;fill-rule:evenodd;stroke:#41463b;stroke-width:2;stroke-linecap:butt;stroke-linejoin:miter;stroke-miterlimit:4;stroke-dasharray:none;stroke-opacity:1"
         d="m 404.46327,202.78719 23.7992,17.92211"
         id="path42421-0"
         inkscape:connector-type="polyline"
         inkscape:connector-curvature="0"
         inkscape:connection-start="#rect846-1-6-8-5"
         inkscape:connection-end="#rect846-6-9" />
      <rect
         style="fill:#ffffff;fill-opacity:1;stroke:#5e81ac;stroke-width:2;stroke-linecap:round;stroke-linejoin:round"
         id="rect846-1-6-8-5"
         width="37.898228"
         height="23.856966"
         x="369.67404"
         y="178.93022" />
      <rect
         style="fill:#ffffff;fill-opacity:1;stroke:#5e81ac;stroke-width:2;stroke-linecap:round;stroke-linejoin:round"
         id="rect846-6-9"
         width="37.898228"
         height="23.856966"
         x="425.15347"
         y="220.7093" />
      <text
         xml:space="preserve"
         style="font-style:normal;font-variant:normal;font-weight:bold;font-stretch:normal;font-size:12.7px;line-height:1.25;font-family:Cantarell;-inkscape-font-specification:'Cantarell, Bold';font-variant-ligatures:normal;font-variant-caps:normal;font-variant-numeric:normal;font-variant-east-asian:normal;letter-spacing:0px;word-spacing:0px;fill:#2e3440;stroke-width:0.406434"
         x="432.81863"
         y="237.26695"
         id="text8254-9-46"><tspan
           sodipodi:role="line"
           id="tspan8252-4-9"
           style="font-style:normal;font-variant:normal;font-weight:bold;font-stretch:normal;font-size:12.7px;font-family:Cantarell;-inkscape-font-specification:'Cantarell, Bold';font-variant-ligatures:normal;font-variant-caps:normal;font-variant-numeric:normal;font-variant-east-asian:normal;fill:#2e3440;stroke-width:0.406434"
           x="432.81863"
           y="237.26695">End</tspan></text>
      <rect
         style="fill:#ffffff;fill-opacity:1;stroke:#5e81ac;stroke-width:2.30115;stroke-linecap:round;stroke-linejoin:round;stroke-miterlimit:4;stroke-dasharray:none"
         id="rect20185-2"
         width="31.191711"
         height="31.191711"
         x="-80.972397"
         y="-438.38013"
         transform="matrix(-0.90974646,0.41516428,-0.90974646,-0.41516428,0,0)" />
      <text
         xml:space="preserve"
         style="font-style:normal;font-variant:normal;font-weight:normal;font-stretch:normal;font-size:8.46667px;line-height:1.25;font-family:Cantarell;-inkscape-font-specification:'Cantarell, Normal';font-variant-ligatures:normal;font-variant-caps:normal;font-variant-numeric:normal;font-variant-east-asian:normal;letter-spacing:0px;word-spacing:0px;stroke-width:0.264583"
         x="430.72104"
         y="108.99326"
         id="text22910-2"><tspan
           sodipodi:role="line"
           id="tspan22908-4"
           style="font-style:normal;font-variant:normal;font-weight:normal;font-stretch:normal;font-size:8.46667px;font-family:Cantarell;-inkscape-font-specification:'Cantarell, Normal';font-variant-ligatures:normal;font-variant-caps:normal;font-variant-numeric:normal;font-variant-east-asian:normal;stroke-width:0.264583"
           x="430.72104"
           y="108.99326">Read A</tspan></text>
      <text
         xml:space="preserve"
         style="font-style:normal;font-variant:normal;font-weight:normal;font-stretch:normal;font-size:8.46667px;line-height:1.25;font-family:Cantarell;-inkscape-font-specification:'Cantarell, Normal';font-variant-ligatures:normal;font-variant-caps:normal;font-variant-numeric:normal;font-variant-east-asian:normal;letter-spacing:0px;word-spacing:0px;fill:#2e3440;stroke-width:0.264583"
         x="378.62827"
         y="193.79665"
         id="text22910-9-7"><tspan
           sodipodi:role="line"
           id="tspan22908-0-7"
           style="font-style:normal;font-variant:normal;font-weight:normal;font-stretch:normal;font-size:8.46667px;font-family:Cantarell;-inkscape-font-specification:'Cantarell, Normal';font-variant-ligatures:normal;font-variant-caps:normal;font-variant-numeric:normal;font-variant-east-asian:normal;fill:#2e3440;stroke-width:0.264583"
           x="378.62827"
           y="193.79665">B = A</tspan></text>
      <text
         xml:space="preserve"
         style="font-style:normal;font-variant:normal;font-weight:normal;font-stretch:normal;font-size:8.46667px;line-height:1.25;font-family:Cantarell;-inkscape-font-specification:'Cantarell, Normal';font-variant-ligatures:normal;font-variant-caps:normal;font-variant-numeric:normal;font-variant-east-asian:normal;letter-spacing:0px;word-spacing:0px;fill:#2e3440;stroke-width:0.264583"
         x="488.35944"
         y="193.81783"
         id="text22910-3-5"><tspan
           sodipodi:role="line"
           id="tspan22908-3-4"
           style="font-style:normal;font-variant:normal;font-weight:normal;font-stretch:normal;font-size:8.46667px;font-family:Cantarell;-inkscape-font-specification:'Cantarell, Normal';font-variant-ligatures:normal;font-variant-caps:normal;font-variant-numeric:normal;font-variant-east-asian:normal;fill:#2e3440;stroke-width:0.264583"
           x="488.35944"
           y="193.81783">B = 12</tspan></text>
      <text
         xml:space="preserve"
         style="font-style:normal;font-variant:normal;font-weight:normal;font-stretch:normal;font-size:8.46667px;line-height:1.25;font-family:Cantarell;-inkscape-font-specification:'Cantarell, Normal';font-variant-ligatures:normal;font-variant-caps:normal;font-variant-numeric:normal;font-variant-east-asian:normal;letter-spacing:0px;word-spacing:0px;stroke-width:0.264583"
         x="431.16132"
         y="151.5537"
         id="text22910-8-81"><tspan
           sodipodi:role="line"
           id="tspan22908-9-2"
           style="font-style:normal;font-variant:normal;font-weight:normal;font-stretch:normal;font-size:8.46667px;font-family:Cantarell;-inkscape-font-specification:'Cantarell, Normal';font-variant-ligatures:normal;font-variant-caps:normal;font-variant-numeric:normal;font-variant-east-asian:normal;stroke-width:0.264583"
           x="431.16132"
           y="151.5537">If A &gt; 7</tspan></text>
      <path
         style="fill:#2e3440;fill-rule:evenodd;stroke:#41463b;stroke-width:2;stroke-linecap:butt;stroke-linejoin:miter;stroke-miterlimit:4;stroke-dasharray:none;stroke-opacity:1"
         d="M 444.10259,76.056559 V 93.978661"
         id="path42149-8"
         inkscape:connector-type="polyline"
         inkscape:connector-curvature="0"
         inkscape:connection-start="#rect846-64"
         inkscape:connection-end="#rect846-1-0" />
    </g>
    <g
       id="g1034"
       transform="translate(-0.54312146,-0.86742973)">
      <rect
         style="fill:#ffffff;fill-opacity:1;stroke:#5e81ac;stroke-width:2;stroke-linecap:round;stroke-linejoin:round"
         id="rect846-8"
         width="37.898228"
         height="23.856966"
         x="253.32881"
         y="53.303471" />
      <text
         xml:space="preserve"
         style="font-style:normal;font-variant:normal;font-weight:bold;font-stretch:normal;font-size:12.7px;line-height:1.25;font-family:Cantarell;-inkscape-font-specification:'Cantarell, Bold';font-variant-ligatures:normal;font-variant-caps:normal;font-variant-numeric:normal;font-variant-east-asian:normal;letter-spacing:0px;word-spacing:0px;fill:#2e3440;stroke-width:0.406434"
         x="257.71741"
         y="69.638847"
         id="text8254-5"><tspan
           sodipodi:role="line"
           id="tspan8252-9"
           style="font-style:normal;font-variant:normal;font-weight:bold;font-stretch:normal;font-size:12.7px;font-family:Cantarell;-inkscape-font-specification:'Cantarell, Bold';font-variant-ligatures:normal;font-variant-caps:normal;font-variant-numeric:normal;font-variant-east-asian:normal;fill:#2e3440;stroke-width:0.406434"
           x="257.71741"
           y="69.638847">Start</tspan></text>
      <path
         style="fill:#2e3440;fill-rule:evenodd;stroke:#41463b;stroke-width:2;stroke-linecap:butt;stroke-linejoin:miter;stroke-miterlimit:4;stroke-dasharray:none;stroke-opacity:1"
         d="m 272.27792,118.93951 -10e-6,17.59761"
         id="path42413-7"
         inkscape:connector-type="polyline"
         inkscape:connector-curvature="0"
         inkscape:connection-start="#rect846-1-5"
         inkscape:connection-end="#rect20185-3" />
      <rect
         style="fill:#ffffff;fill-opacity:1;stroke:#5e81ac;stroke-width:2;stroke-linecap:round;stroke-linejoin:round"
         id="rect846-1-5"
         width="37.898228"
         height="23.856966"
         x="253.32881"
         y="95.082542" />
      <path
         style="fill:#2e3440;fill-rule:evenodd;stroke:#41463b;stroke-width:2;stroke-linecap:butt;stroke-linejoin:miter;stroke-miterlimit:4;stroke-dasharray:none;stroke-opacity:1"
         d="m 282.87534,157.60033 29.30171,22.43379"
         id="path42415-3"
         inkscape:connector-type="polyline"
         inkscape:connector-curvature="0"
         inkscape:connection-start="#rect20185-3"
         inkscape:connection-end="#rect846-1-6-83" />
      <path
         style="fill:#2e3440;fill-rule:evenodd;stroke:#41463b;stroke-width:2;stroke-linecap:butt;stroke-linejoin:miter;stroke-miterlimit:4;stroke-dasharray:none;stroke-opacity:1"
         d="M 311.91723,203.89108 288.11804,221.8132"
         id="path42419-8"
         inkscape:connector-type="polyline"
         inkscape:connector-curvature="0"
         inkscape:connection-start="#rect846-1-6-83"
         inkscape:connection-end="#rect846-6-6" />
      <rect
         style="fill:#ffffff;fill-opacity:1;stroke:#5e81ac;stroke-width:2;stroke-linecap:round;stroke-linejoin:round"
         id="rect846-1-6-83"
         width="37.898228"
         height="23.856966"
         x="308.80823"
         y="180.03412" />
      <path
         style="fill:#2e3440;fill-rule:evenodd;stroke:#41463b;stroke-width:2;stroke-linecap:butt;stroke-linejoin:miter;stroke-miterlimit:4;stroke-dasharray:none;stroke-opacity:1"
         d="m 261.68049,157.60034 -29.3017,22.43378"
         id="path42417-1"
         inkscape:connector-type="polyline"
         inkscape:connector-curvature="0"
         inkscape:connection-start="#rect20185-3"
         inkscape:connection-end="#rect846-1-6-8-9" />
      <path
         style="fill:#2e3440;fill-rule:evenodd;stroke:#41463b;stroke-width:2;stroke-linecap:butt;stroke-linejoin:miter;stroke-miterlimit:4;stroke-dasharray:none;stroke-opacity:1"
         d="m 232.63862,203.89108 23.7992,17.92212"
         id="path42421-8"
         inkscape:connector-type="polyline"
         inkscape:connector-curvature="0"
         inkscape:connection-start="#rect846-1-6-8-9"
         inkscape:connection-end="#rect846-6-6" />
      <rect
         style="fill:#ffffff;fill-opacity:1;stroke:#5e81ac;stroke-width:2;stroke-linecap:round;stroke-linejoin:round"
         id="rect846-1-6-8-9"
         width="37.898228"
         height="23.856966"
         x="197.8494"
         y="180.03412" />
      <rect
         style="fill:#ffffff;fill-opacity:1;stroke:#5e81ac;stroke-width:2;stroke-linecap:round;stroke-linejoin:round"
         id="rect846-6-6"
         width="37.898228"
         height="23.856966"
         x="253.32881"
         y="221.8132" />
      <text
         xml:space="preserve"
         style="font-style:normal;font-variant:normal;font-weight:bold;font-stretch:normal;font-size:12.7px;line-height:1.25;font-family:Cantarell;-inkscape-font-specification:'Cantarell, Bold';font-variant-ligatures:normal;font-variant-caps:normal;font-variant-numeric:normal;font-variant-east-asian:normal;letter-spacing:0px;word-spacing:0px;fill:#2e3440;stroke-width:0.406434"
         x="260.99399"
         y="238.37082"
         id="text8254-9-4"><tspan
           sodipodi:role="line"
           id="tspan8252-4-3"
           style="font-style:normal;font-variant:normal;font-weight:bold;font-stretch:normal;font-size:12.7px;font-family:Cantarell;-inkscape-font-specification:'Cantarell, Bold';font-variant-ligatures:normal;font-variant-caps:normal;font-variant-numeric:normal;font-variant-east-asian:normal;fill:#2e3440;stroke-width:0.406434"
           x="260.99399"
           y="238.37082">End</tspan></text>
      <rect
         style="fill:#ffffff;fill-opacity:1;stroke:#5e81ac;stroke-width:2.30115;stroke-linecap:round;stroke-linejoin:round;stroke-miterlimit:4;stroke-dasharray:none"
         id="rect20185-3"
         width="31.191711"
         height="31.191711"
         x="14.792517"
         y="-345.27411"
         transform="matrix(-0.90974646,0.41516428,-0.90974646,-0.41516428,0,0)" />
      <text
         xml:space="preserve"
         style="font-style:normal;font-variant:normal;font-weight:normal;font-stretch:normal;font-size:8.46667px;line-height:1.25;font-family:Cantarell;-inkscape-font-specification:'Cantarell, Normal';font-variant-ligatures:normal;font-variant-caps:normal;font-variant-numeric:normal;font-variant-east-asian:normal;letter-spacing:0px;word-spacing:0px;stroke-width:0.264583"
         x="258.89636"
         y="110.09715"
         id="text22910-38"><tspan
           sodipodi:role="line"
           id="tspan22908-6"
           style="font-style:normal;font-variant:normal;font-weight:normal;font-stretch:normal;font-size:8.46667px;font-family:Cantarell;-inkscape-font-specification:'Cantarell, Normal';font-variant-ligatures:normal;font-variant-caps:normal;font-variant-numeric:normal;font-variant-east-asian:normal;stroke-width:0.264583"
           x="258.89636"
           y="110.09715">Read A</tspan></text>
      <text
         xml:space="preserve"
         style="font-style:normal;font-variant:normal;font-weight:normal;font-stretch:normal;font-size:8.46667px;line-height:1.25;font-family:Cantarell;-inkscape-font-specification:'Cantarell, Normal';font-variant-ligatures:normal;font-variant-caps:normal;font-variant-numeric:normal;font-variant-east-asian:normal;letter-spacing:0px;word-spacing:0px;fill:#2e3440;stroke-width:0.264583"
         x="206.80362"
         y="194.90054"
         id="text22910-9-0"><tspan
           sodipodi:role="line"
           id="tspan22908-0-4"
           style="font-style:normal;font-variant:normal;font-weight:normal;font-stretch:normal;font-size:8.46667px;font-family:Cantarell;-inkscape-font-specification:'Cantarell, Normal';font-variant-ligatures:normal;font-variant-caps:normal;font-variant-numeric:normal;font-variant-east-asian:normal;fill:#2e3440;stroke-width:0.264583"
           x="206.80362"
           y="194.90054">B = A</tspan></text>
      <text
         xml:space="preserve"
         style="font-style:normal;font-variant:normal;font-weight:normal;font-stretch:normal;font-size:8.46667px;line-height:1.25;font-family:Cantarell;-inkscape-font-specification:'Cantarell, Normal';font-variant-ligatures:normal;font-variant-caps:normal;font-variant-numeric:normal;font-variant-east-asian:normal;letter-spacing:0px;word-spacing:0px;fill:#2e3440;stroke-width:0.264583"
         x="316.53479"
         y="194.92169"
         id="text22910-3-8"><tspan
           sodipodi:role="line"
           id="tspan22908-3-8"
           style="font-style:normal;font-variant:normal;font-weight:normal;font-stretch:normal;font-size:8.46667px;font-family:Cantarell;-inkscape-font-specification:'Cantarell, Normal';font-variant-ligatures:normal;font-variant-caps:normal;font-variant-numeric:normal;font-variant-east-asian:normal;fill:#2e3440;stroke-width:0.264583"
           x="316.53479"
           y="194.92169">B = 12</tspan></text>
      <text
         xml:space="preserve"
         style="font-style:normal;font-variant:normal;font-weight:normal;font-stretch:normal;font-size:8.46667px;line-height:1.25;font-family:Cantarell;-inkscape-font-specification:'Cantarell, Normal';font-variant-ligatures:normal;font-variant-caps:normal;font-variant-numeric:normal;font-variant-east-asian:normal;letter-spacing:0px;word-spacing:0px;stroke-width:0.264583"
         x="259.33664"
         y="152.65756"
         id="text22910-8-8"><tspan
           sodipodi:role="line"
           id="tspan22908-9-9"
           style="font-style:normal;font-variant:normal;font-weight:normal;font-stretch:normal;font-size:8.46667px;font-family:Cantarell;-inkscape-font-specification:'Cantarell, Normal';font-variant-ligatures:normal;font-variant-caps:normal;font-variant-numeric:normal;font-variant-east-asian:normal;stroke-width:0.264583"
           x="259.33664"
           y="152.65756">If A &gt; 7</tspan></text>
      <path
         style="fill:#2e3440;fill-rule:evenodd;stroke:#41463b;stroke-width:2;stroke-linecap:butt;stroke-linejoin:miter;stroke-miterlimit:4;stroke-dasharray:none;stroke-opacity:1"
         d="M 272.27793,77.160437 V 95.082542"
         id="path42149-7"
         inkscape:connector-type="polyline"
         inkscape:connector-curvature="0"
         inkscape:connection-start="#rect846-8"
         inkscape:connection-end="#rect846-1-5" />
    </g>
    <g
       id="g12478">
      <path
         d="m 273.17933,70.146753 0.0731,75.735217 c 8.8e-4,0.91284 0.009,1.09093 0.67549,1.61744 l 54.43262,43.00491 c 0.84058,0.6641 0.75224,1.86429 0.0215,2.40285 l -40.47741,29.8328 0.97844,1.30025 c 0.26753,0.35554 0.0232,1.00075 -0.53909,1.42391 -0.27313,0.20554 -0.58372,0.32787 -0.86825,0.35105 l -6.07003,0.49462 c -0.28453,0.0232 -0.5193,-0.0548 -0.64925,-0.2274 -0.12995,-0.1727 -0.13979,-0.41986 -0.0387,-0.68684 l 2.1563,-5.69563 c 0.10103,-0.26699 0.30465,-0.53154 0.57778,-0.73708 0.56236,-0.42316 1.24998,-0.47918 1.51751,-0.12366 l 0.97844,1.30027 38.24752,-28.14373 c 0.31531,-0.23201 0.27546,-0.40756 -0.0627,-0.67609 l -53.59149,-42.55645 c -0.78289,-0.62169 -0.75101,-0.88332 -0.74974,-1.82075 l 0.10427,-76.806304 z"
         id="path1269"
         style="fill:#bf616a;stroke-width:0.0159885"
         sodipodi:nodetypes="csssscsssssccsscsssscc" />
      <path
         d="m 297.60594,166.43406 1.00029,-1.28353 c 0.27351,-0.35095 0.96007,-0.28334 1.5152,0.14931 0.26963,0.21012 0.46868,0.47809 0.56522,0.74675 l 2.05966,5.73128 c 0.0966,0.26864 0.0825,0.51563 -0.0503,0.68609 -0.13286,0.17046 -0.36892,0.24439 -0.65302,0.21634 l -6.06079,-0.59721 c -0.28409,-0.028 -0.59257,-0.15558 -0.86219,-0.3657 -0.55511,-0.43262 -0.78843,-1.08187 -0.51493,-1.43283 l 1.0003,-1.28352 z"
         id="path1269-9-8"
         style="fill:#bf616a;stroke-width:0.0159885"
         sodipodi:nodetypes="csssssccsscc" />
      <path
         d="m 273.23128,123.32265 1.62725,0.008 c 0.44494,0.002 0.81071,0.58718 0.80715,1.29099 -0.002,0.34183 -0.0923,0.6631 -0.24611,0.90362 l -3.28035,5.13119 c -0.15372,0.24055 -0.35791,0.38023 -0.57399,0.37918 -0.21612,-0.001 -0.41883,-0.14287 -0.57013,-0.38496 l -3.22861,-5.1639 c -0.15133,-0.24205 -0.23871,-0.56424 -0.23699,-0.90606 0.004,-0.70377 0.37515,-1.28504 0.82008,-1.28281 l 1.62726,0.008 z"
         id="path1269-9-8-0"
         style="fill:#bf616a;stroke-width:0.0159885"
         sodipodi:nodetypes="csssssccsscc" />
      <path
         d="m 273.0926,82.427214 1.62725,0.008 c 0.44494,0.002 0.81071,0.58718 0.80715,1.29099 -0.002,0.34183 -0.0923,0.6631 -0.24611,0.90362 l -3.28035,5.13119 c -0.15372,0.24055 -0.35791,0.38023 -0.57399,0.37918 -0.21612,-10e-4 -0.41883,-0.14287 -0.57013,-0.38496 l -3.22861,-5.1639 c -0.15133,-0.24205 -0.23871,-0.56424 -0.23699,-0.90606 0.004,-0.70377 0.37515,-1.28504 0.82008,-1.28281 l 1.62726,0.008 z"
         id="path1269-9-8-0-2"
         style="fill:#bf616a;stroke-width:0.0159885"
         sodipodi:nodetypes="csssssccsscc" />
    </g>
    <g
       id="g12478-0"
       transform="matrix(-1,0,0,1,715.54351,0.32750275)"
       style="fill:#a3be8c">
      <path
         d="m 273.17933,70.146753 0.0731,75.735217 c 8.8e-4,0.91284 0.009,1.09093 0.67549,1.61744 l 54.43262,43.00491 c 0.84058,0.6641 0.75224,1.86429 0.0215,2.40285 l -40.47741,29.8328 0.97844,1.30025 c 0.26753,0.35554 0.0232,1.00075 -0.53909,1.42391 -0.27313,0.20554 -0.58372,0.32787 -0.86825,0.35105 l -6.07003,0.49462 c -0.28453,0.0232 -0.5193,-0.0548 -0.64925,-0.2274 -0.12995,-0.1727 -0.13979,-0.41986 -0.0387,-0.68684 l 2.1563,-5.69563 c 0.10103,-0.26699 0.30465,-0.53154 0.57778,-0.73708 0.56236,-0.42316 1.24998,-0.47918 1.51751,-0.12366 l 0.97844,1.30027 38.24752,-28.14373 c 0.31531,-0.23201 0.27546,-0.40756 -0.0627,-0.67609 l -53.59149,-42.55645 c -0.78289,-0.62169 -0.75101,-0.88332 -0.74974,-1.82075 l 0.10427,-76.806304 z"
         id="path1269-5"
         style="fill:#a3be8c;stroke-width:0.0159885"
         sodipodi:nodetypes="csssscsssssccsscsssscc" />
      <path
         d="m 297.60594,166.43406 1.00029,-1.28353 c 0.27351,-0.35095 0.96007,-0.28334 1.5152,0.14931 0.26963,0.21012 0.46868,0.47809 0.56522,0.74675 l 2.05966,5.73128 c 0.0966,0.26864 0.0825,0.51563 -0.0503,0.68609 -0.13286,0.17046 -0.36892,0.24439 -0.65302,0.21634 l -6.06079,-0.59721 c -0.28409,-0.028 -0.59257,-0.15558 -0.86219,-0.3657 -0.55511,-0.43262 -0.78843,-1.08187 -0.51493,-1.43283 l 1.0003,-1.28352 z"
         id="path1269-9-8-1"
         style="fill:#a3be8c;stroke-width:0.0159885"
         sodipodi:nodetypes="csssssccsscc" />
      <path
         d="m 273.23128,123.32265 1.62725,0.008 c 0.44494,0.002 0.81071,0.58718 0.80715,1.29099 -0.002,0.34183 -0.0923,0.6631 -0.24611,0.90362 l -3.28035,5.13119 c -0.15372,0.24055 -0.35791,0.38023 -0.57399,0.37918 -0.21612,-0.001 -0.41883,-0.14287 -0.57013,-0.38496 l -3.22861,-5.1639 c -0.15133,-0.24205 -0.23871,-0.56424 -0.23699,-0.90606 0.004,-0.70377 0.37515,-1.28504 0.82008,-1.28281 l 1.62726,0.008 z"
         id="path1269-9-8-0-1"
         style="fill:#a3be8c;stroke-width:0.0159885"
         sodipodi:nodetypes="csssssccsscc" />
      <path
         d="m 273.0926,82.427214 1.62725,0.008 c 0.44494,0.002 0.81071,0.58718 0.80715,1.29099 -0.002,0.34183 -0.0923,0.6631 -0.24611,0.90362 l -3.28035,5.13119 c -0.15372,0.24055 -0.35791,0.38023 -0.57399,0.37918 -0.21612,-10e-4 -0.41883,-0.14287 -0.57013,-0.38496 l -3.22861,-5.1639 c -0.15133,-0.24205 -0.23871,-0.56424 -0.23699,-0.90606 0.004,-0.70377 0.37515,-1.28504 0.82008,-1.28281 l 1.62726,0.008 z"
         id="path1269-9-8-0-2-0"
         style="fill:#a3be8c;stroke-width:0.0159885"
         sodipodi:nodetypes="csssssccsscc" />
    </g>
  </g>
</svg>
