<?xml version="1.0" encoding="UTF-8" standalone="no"?>
<!-- Created with Inkscape (http://www.inkscape.org/) -->

<svg
   width="295.85632mm"
   height="41.886883mm"
   viewBox="0 0 295.85632 41.886883"
   version="1.1"
   id="svg43490"
   inkscape:version="1.1.1 (3bf5ae0d25, 2021-09-20)"
   sodipodi:docname="flow.svg"
   xmlns:inkscape="http://www.inkscape.org/namespaces/inkscape"
   xmlns:sodipodi="http://sodipodi.sourceforge.net/DTD/sodipodi-0.dtd"
   xmlns="http://www.w3.org/2000/svg"
   xmlns:svg="http://www.w3.org/2000/svg">
  <sodipodi:namedview
     id="namedview43492"
     pagecolor="#ffffff"
     bordercolor="#666666"
     borderopacity="1.0"
     inkscape:pageshadow="2"
     inkscape:pageopacity="0.0"
     inkscape:pagecheckerboard="0"
     inkscape:document-units="mm"
     showgrid="false"
     inkscape:zoom="1.040995"
     inkscape:cx="224.30462"
     inkscape:cy="-40.346013"
     inkscape:window-width="1920"
     inkscape:window-height="1011"
     inkscape:window-x="0"
     inkscape:window-y="32"
     inkscape:window-maximized="1"
     inkscape:current-layer="layer1" />
  <defs
     id="defs43487" />
  <g
     inkscape:label="Calque 1"
     inkscape:groupmode="layer"
     id="layer1"
     transform="translate(-19.042632,-49.238423)">
    <path
       d="m 38.886386,87.017024 c 0,2.26343 -1.488281,4.108284 -3.302124,4.108284 H 22.344758 c -1.813845,0 -3.302126,-1.844854 -3.302126,-4.108284 0,-4.077268 1.00769,-8.790158 5.069459,-8.790158 1.255737,1.22473 2.96106,1.984384 4.852418,1.984384 1.891358,0 3.596681,-0.759654 4.852418,-1.984384 4.061769,0 5.069459,4.71289 5.069459,8.790158 z M 34.917634,73.265929 c 0,3.286613 -2.666502,5.95312 -5.953125,5.95312 -3.286623,0 -5.953125,-2.666507 -5.953125,-5.95312 0,-3.286614 2.666502,-5.953121 5.953125,-5.953121 3.286623,0 5.953125,2.666507 5.953125,5.953121 z"
       id="path43613"
       style="fill:#5e81ac;stroke-width:0.0155029" />
    <path
       d="m 103.43178,87.017024 c 0,2.26343 -1.48827,4.108284 -3.30212,4.108284 h -13.2395 c -1.813845,0 -3.302126,-1.844854 -3.302126,-4.108284 0,-4.077268 1.00769,-8.790158 5.069459,-8.790158 1.255737,1.22473 2.96106,1.984384 4.852419,1.984384 1.89136,0 3.59668,-0.759654 4.85241,-1.984384 4.061778,0 5.069458,4.71289 5.069458,8.790158 z M 99.463042,73.265929 c 0,3.286613 -2.6665,5.95312 -5.95313,5.95312 -3.286624,0 -5.953127,-2.666507 -5.953127,-5.95312 0,-3.286614 2.666503,-5.953121 5.953127,-5.953121 3.28663,0 5.95313,2.666507 5.95313,5.953121 z"
       id="path43613-2"
       style="fill:#5e81ac;stroke-width:0.0155029" />
    <path
       d="m 72.984532,79.219059 c 0,0.28367 -0.116807,0.550655 -0.317042,0.750894 l -4.271753,4.271753 c -0.200239,0.200238 -0.467225,0.317044 -0.750895,0.317044 -0.584031,0 -1.067941,-0.483909 -1.067941,-1.067938 V 81.354935 H 49.489889 v -4.271753 h 17.087012 v -2.135877 c 0,-0.584029 0.48391,-1.067938 1.067941,-1.067938 0.28367,0 0.550656,0.116805 0.750895,0.317043 l 4.271753,4.271755 c 0.200235,0.200238 0.317042,0.467222 0.317042,0.750894 z"
       id="path57375"
       style="stroke-width:0.0166865;fill:#2e3440"
       sodipodi:nodetypes="scsssccccssscs" />
    <path
       d="m 137.52994,79.219058 c 0,0.28367 -0.11681,0.550655 -0.31705,0.750894 l -4.27175,4.271753 c -0.20024,0.200238 -0.46722,0.317044 -0.75089,0.317044 -0.58403,0 -1.06794,-0.483909 -1.06794,-1.067938 v -2.135877 h -17.08702 v -4.271753 h 17.08702 v -2.135876 c 0,-0.58403 0.48391,-1.067938 1.06794,-1.067938 0.28367,0 0.55065,0.116805 0.75089,0.317043 l 4.27175,4.271754 c 0.20024,0.200238 0.31705,0.467223 0.31705,0.750894 z"
       id="path57375-5"
       style="stroke-width:0.0166865;fill:#2e3440"
       sodipodi:nodetypes="scsssccccssscs" />
    <path
       d="m 202.64232,79.219059 c 0,0.28367 -0.11681,0.550655 -0.31705,0.750894 l -4.27175,4.271753 c -0.20024,0.200238 -0.46722,0.317044 -0.75089,0.317044 -0.58403,0 -1.06794,-0.483909 -1.06794,-1.067938 v -2.135877 h -17.08702 v -4.271753 h 17.08702 v -2.135877 c 0,-0.584029 0.48392,-1.067938 1.06794,-1.067938 0.28367,0 0.55065,0.116805 0.75089,0.317043 l 4.27175,4.271755 c 0.20024,0.200238 0.31705,0.467222 0.31705,0.750894 z"
       id="path57375-5-7"
       style="stroke-width:0.0166865;fill:#2e3440"
       sodipodi:nodetypes="scsssccccssscs" />
    <path
       d="m 274.37734,79.219059 c 0,0.28367 -0.11681,0.550655 -0.31705,0.750894 l -4.27175,4.271753 c -0.20024,0.200238 -0.46722,0.317044 -0.75089,0.317044 -0.58403,0 -1.06794,-0.483909 -1.06794,-1.067938 V 81.354934 H 250.8827 v -4.271753 h 17.08701 v -2.135876 c 0,-0.58403 0.48393,-1.067938 1.06794,-1.067938 0.28367,0 0.55065,0.116805 0.75089,0.317043 l 4.27175,4.271754 c 0.20024,0.200238 0.31705,0.467223 0.31705,0.750895 z"
       id="path57375-5-7-6"
       style="stroke-width:0.0166865;fill:#2e3440"
       sodipodi:nodetypes="scsssccccssscs" />
    <g
       id="g59586"
       style="fill:#2e3440">
      <path
         d="m 46.004634,49.288253 c -1.225174,0.167822 -2.315444,0.66006 -3.259964,1.469486 -0.167822,0.14594 -0.382832,0.357335 -0.477778,0.463127 l -0.167822,0.200549 -0.244312,-0.124059 c -0.302726,-0.15317 -0.79858,-0.320992 -1.210713,-0.408328 -0.441246,-0.09476 -1.600776,-0.09837 -2.042021,-0.0036 -1.010165,0.2152 -1.866968,0.667291 -2.596289,1.371114 -0.794965,0.758433 -1.298049,1.66642 -1.531515,2.74946 -0.105793,0.499659 -0.113023,1.484137 -0.01465,1.976376 0.470357,2.366628 2.33371,4.058544 4.707569,4.28459 0.22243,0.01827 0.426594,0.03653 0.455896,0.03653 0.03273,0 0.07649,0.0548 0.102177,0.123869 0.116638,0.317377 0.525157,0.845958 0.86784,1.119572 1.006359,0.79858 2.351977,0.907987 3.47878,0.277039 0.342873,-0.193319 0.948135,-0.783929 1.126802,-1.101306 l 0.123869,-0.22243 0.313571,0.07288 c 0.251542,0.0548 0.473973,0.06926 1.134033,0.07287 0.718285,0.0036 0.871455,-0.0072 1.22879,-0.0801 1.943649,-0.393867 3.569921,-1.648153 4.423109,-3.41675 1.01378,-2.093014 0.758432,-4.583701 -0.65283,-6.454284 -0.375601,-0.503275 -1.075809,-1.148685 -1.611811,-1.487753 -0.557883,-0.353719 -1.440374,-0.714669 -2.074938,-0.842343 -0.670335,-0.134904 -1.435998,-0.164016 -2.077792,-0.07649 z m 1.294434,0.747396 c 1.739295,0.164016 3.281846,1.130418 4.193449,2.632822 0.958981,1.586314 1.02101,3.624529 0.160401,5.280103 -1.166761,2.246185 -3.726707,3.398484 -6.169825,2.782377 -0.386447,-0.09476 -0.557883,-0.09114 -0.65283,0.01827 -0.02911,0.03292 -0.123869,0.207779 -0.211395,0.390252 -0.218815,0.459512 -0.612682,0.856994 -1.057542,1.068389 -0.397483,0.185897 -0.630759,0.240696 -1.039277,0.237081 -0.601646,-0.0036 -1.115767,-0.207779 -1.546167,-0.616297 -0.295305,-0.277039 -0.43763,-0.485009 -0.601646,-0.878876 -0.167822,-0.404713 -0.237081,-0.448476 -0.769468,-0.448476 -0.725705,0 -1.360079,-0.156786 -2.023754,-0.495854 -0.678327,-0.346489 -1.243441,-0.849573 -1.662805,-1.476907 -0.528581,-0.791349 -0.758242,-1.549972 -0.754626,-2.494302 0.0036,-1.261707 0.477587,-2.366628 1.392995,-3.238083 1.389381,-1.323736 3.413136,-1.59716 5.159851,-0.700208 0.485008,0.251542 0.565114,0.255348 0.765853,0.04376 0.904372,-0.955366 1.192447,-1.188832 1.899886,-1.538746 0.670906,-0.331838 1.192447,-0.488623 1.899885,-0.561498 0.415369,-0.04376 0.568539,-0.04376 1.017015,-0.0038 z"
         id="path57589"
         style="stroke-width:0.00190274;fill:#2e3440" />
      <path
         d="m 43.944347,52.384011 c -0.05841,0.02911 -0.835112,0.780314 -1.721219,1.670035 -1.557012,1.560627 -1.615426,1.622657 -1.615426,1.753946 0,0.178667 0.0803,0.328222 0.200549,0.382831 0.05099,0.0255 0.200549,0.04376 0.328223,0.04376 h 0.237081 v 1.404032 c 0,1.5279 0.0036,1.564242 0.200549,1.651768 0.124059,0.05841 1.801324,0.06203 1.925382,0.0036 0.196934,-0.08753 0.20778,-0.156786 0.20778,-1.268938 V 57.00042 h 0.382831 0.379216 l 0.01104,1.061158 0.01085,1.061158 0.120253,0.105792 0.116638,0.105793 h 0.933484 0.933484 l 0.105793,-0.105793 0.105792,-0.105792 v -1.443989 -1.44399 h 0.237081 c 0.295306,0 0.441246,-0.06926 0.514121,-0.244312 0.04376,-0.09476 0.04738,-0.15317 0.01827,-0.240696 -0.02911,-0.0803 -0.568919,-0.64541 -1.670035,-1.746716 -1.735679,-1.735679 -1.728449,-1.728449 -1.961725,-1.619041 z m 2.257221,3.150557 c -0.156786,0.124059 -0.160401,0.164016 -0.160401,1.626272 v 1.407647 h -0.382832 -0.382831 v -0.984478 c 0,-1.09027 -0.01446,-1.188832 -0.2152,-1.290819 -0.09114,-0.04738 -0.258963,-0.05841 -0.966402,-0.05841 -0.587185,0 -0.886106,0.01465 -0.95175,0.04376 -0.189703,0.08391 -0.200549,0.156786 -0.200549,1.268938 v 1.02101 h -0.401097 -0.401098 v -1.44399 -1.443989 l -0.113023,-0.109408 -0.113023,-0.113022 1.09027,-1.09027 1.086655,-1.086655 1.093885,1.093885 c 1.08304,1.08304 1.093886,1.097691 1.017396,1.159529 z"
         id="path57591"
         style="stroke-width:0.00190274;fill:#2e3440" />
      <path
         d="m 39.404409,63.290707 c -0.426594,0.120253 -0.783928,0.422979 -0.988283,0.838728 -0.116638,0.240696 -0.124058,0.273423 -0.124058,0.656445 0,0.375601 0.0072,0.415749 0.116638,0.645409 0.160401,0.339069 0.397482,0.583381 0.72932,0.747587 0.237081,0.116638 0.313571,0.134904 0.590801,0.149555 0.393867,0.01827 0.627143,-0.04376 0.94452,-0.244311 0.258963,-0.171437 0.51412,-0.492239 0.616297,-0.780314 0.04376,-0.131289 0.06564,-0.295496 0.06564,-0.536002 0,-0.313572 -0.01085,-0.36818 -0.116638,-0.594416 -0.160401,-0.335453 -0.434015,-0.616297 -0.762048,-0.776698 -0.22243,-0.113023 -0.309956,-0.134905 -0.568919,-0.145941 -0.200549,-0.01104 -0.36837,0.0034 -0.503275,0.03996 z m 0.64541,0.765853 c 0.138519,0.04015 0.226045,0.09837 0.331838,0.22243 0.357334,0.401098 0.247927,0.966402 -0.229661,1.199678 -0.171437,0.08753 -0.233276,0.09856 -0.404713,0.0803 -0.382831,-0.04015 -0.656445,-0.313571 -0.696403,-0.696593 -0.03653,-0.371795 0.222431,-0.740166 0.579765,-0.824077 0.178477,-0.04376 0.218625,-0.04015 0.419174,0.01827 z"
         id="path57593"
         style="stroke-width:0.00190274;fill:#2e3440" />
      <path
         d="m 35.99508,65.617187 c -0.240697,0.0803 -0.36095,0.156786 -0.525156,0.335453 -0.226046,0.247927 -0.306341,0.452281 -0.306341,0.783929 0,0.335453 0.08029,0.543423 0.320801,0.79858 0.233467,0.251542 0.466743,0.346489 0.838728,0.350104 0.247927,0 0.324608,-0.01465 0.49966,-0.102177 0.226045,-0.109407 0.419364,-0.302726 0.547038,-0.543232 0.06926,-0.131289 0.08391,-0.211585 0.08391,-0.503275 0,-0.386446 -0.05461,-0.536002 -0.295305,-0.802195 -0.266383,-0.29169 -0.795155,-0.43763 -1.163335,-0.317187 z m 0.473972,0.769468 c 0.127674,0.0548 0.237082,0.21501 0.237082,0.350104 0,0.135095 -0.109408,0.295306 -0.244312,0.350104 -0.364755,0.152981 -0.685557,-0.29188 -0.4304,-0.601836 0.0803,-0.09476 0.127674,-0.116638 0.28446,-0.14575 0.01465,-1.9e-4 0.08391,0.01808 0.15317,0.04738 z"
         id="path57595"
         style="stroke-width:0.00190274;fill:#2e3440" />
    </g>
    <path
       d="m 310.62837,81.030627 v 8.907069 c 0,0.649479 -0.53814,1.187612 -1.18762,1.187612 h -7.12565 v -7.125662 h -4.75043 v 7.125662 H 290.439 c -0.64946,0 -1.18761,-0.538133 -1.18761,-1.187612 v -8.907069 c 0,-0.03709 0.0185,-0.07428 0.0185,-0.111336 l 10.66993,-8.795734 10.66992,8.795734 c 0.0185,0.03709 0.0185,0.07428 0.0185,0.111336 z m 4.13807,-1.280393 -1.15049,1.373174 c -0.0928,0.111335 -0.24123,0.185562 -0.38969,0.204117 h -0.0556 c -0.14845,0 -0.27834,-0.03709 -0.38969,-0.12989 L 299.93992,70.490593 287.09889,81.197635 c -0.12989,0.09282 -0.27834,0.148454 -0.44535,0.12989 -0.14844,-0.01854 -0.2969,-0.09282 -0.38968,-0.204117 l -1.1505,-1.373174 c -0.20412,-0.241236 -0.16701,-0.630915 0.0742,-0.835042 l 13.34206,-11.115275 c 0.77936,-0.649478 2.04119,-0.649478 2.82057,0 l 4.52776,3.785497 v -3.618488 c 0,-0.334017 0.25979,-0.593806 0.5938,-0.593806 h 3.56283 c 0.33402,0 0.59381,0.259789 0.59381,0.593806 v 7.571003 l 4.06385,3.377263 c 0.24123,0.204127 0.27834,0.593806 0.0743,0.835042 z"
       id="path57846"
       style="stroke-width:0.0185563;fill:#2e3440" />
    <path
       d="m 167.64057,72.362336 c 0.49166,0.491661 0.9036,1.47499 0.9036,2.179266 v 15.308037 c 0,0.704276 -0.5714,1.275669 -1.27567,1.275669 h -17.85938 c -0.70427,0 -1.27567,-0.571393 -1.27567,-1.275669 V 68.588477 c 0,-0.704276 0.5714,-1.275669 1.27567,-1.275669 h 11.90625 c 0.70428,0 1.68761,0.411935 2.17927,0.903596 z m -5.89997,-3.242328 v 4.996371 h 4.99637 c -0.0797,-0.225903 -0.19932,-0.451798 -0.29234,-0.544818 l -4.15922,-4.159212 c -0.093,-0.09302 -0.31891,-0.212616 -0.54481,-0.292341 z m 5.10267,20.304407 V 75.817272 h -5.5279 c -0.70427,0 -1.27567,-0.571393 -1.27567,-1.27567 V 69.0137 H 149.83435 V 89.424415 Z M 153.23613,77.943388 c 0,-0.23919 0.18603,-0.425223 0.42522,-0.425223 h 9.35492 c 0.23919,0 0.42522,0.186033 0.42522,0.425223 v 0.850447 c 0,0.23919 -0.18603,0.425223 -0.42522,0.425223 h -9.35492 c -0.23919,0 -0.42522,-0.186033 -0.42522,-0.425223 z m 9.78014,2.976563 c 0.23919,0 0.42522,0.186032 0.42522,0.425223 v 0.850447 c 0,0.23919 -0.18603,0.425223 -0.42522,0.425223 h -9.35492 c -0.23919,0 -0.42522,-0.186033 -0.42522,-0.425223 v -0.850447 c 0,-0.239191 0.18603,-0.425223 0.42522,-0.425223 z m 0,3.401786 c 0.23919,0 0.42522,0.186032 0.42522,0.425223 v 0.850446 c 0,0.239191 -0.18603,0.425224 -0.42522,0.425224 h -9.35492 c -0.23919,0 -0.42522,-0.186033 -0.42522,-0.425224 V 84.74696 c 0,-0.239191 0.18603,-0.425223 0.42522,-0.425223 z"
       id="path76172"
       style="fill:#a3be8c;stroke-width:0.0132882" />
    <path
       d="m 224.50189,82.135361 c 0.12166,-0.183479 0.05,-0.418445 -0.16008,-0.524662 -0.20994,-0.106287 -0.47889,-0.04364 -0.60056,0.139841 l -1.58917,2.404651 h -9.5e-4 c -0.12166,0.184089 -0.0495,0.419527 0.16123,0.525817 0.0713,0.03592 0.14939,0.05243 0.22622,0.05154 h 4.22395 4.22991 c 0.24332,0 0.44048,-0.172304 0.44048,-0.384875 0,-0.07976 -0.0278,-0.153915 -0.0754,-0.215412 l -1.574,-2.381716 c -0.12173,-0.183478 -0.39061,-0.246128 -0.60063,-0.139841 -0.21002,0.106217 -0.28173,0.341183 -0.16007,0.524662 l 1.20769,1.82742 h -3.46804 -3.46805 l 1.20769,-1.82742"
       style="fill:#2e3440;fill-opacity:1;fill-rule:nonzero;stroke:#2e3440;stroke-width:0.00723828"
       id="path14" />
    <path
       d="m 230.0868,83.962781 -1.08054,-1.634943 h -4.77502 l -1.08054,1.634943 h 3.46805 3.46805"
       style="fill:#f8f8f8;fill-opacity:1;fill-rule:evenodd;stroke:none;stroke-width:0.00723828"
       id="path18" />
    <rect
       style="fill:#eceff4;stroke:#2e3440;stroke-width:1.4313;stroke-linecap:round;stroke-linejoin:round;stroke-miterlimit:4;stroke-dasharray:none"
       id="rect93717"
       width="22.278046"
       height="13.631809"
       x="215.62349"
       y="68.028458" />
    <path
       id="rect94145"
       style="fill:#eceff4;stroke:#2e3440;stroke-width:0.954203;stroke-linecap:round;stroke-linejoin:round;stroke-miterlimit:4;stroke-dasharray:none;paint-order:fill markers stroke"
       d="m 214.99185,87.426708 h 23.54132 l 1.26895,3.221499 h -26.07921 z"
       sodipodi:nodetypes="ccccc" />
  </g>
</svg>
